About the tibble output • openalexR
…
We will store the result in a list column:

multi_insts <- works %>%
  rowwise() %>%
  mutate(
    openalex = stringr::str_extract(id, "W\\d+"),
    institutions = list(unique(author$institution_display_name)),
    .keep = "none"
  )

multi_insts
#> # A tibble: 75 × 2
#> # Rowwise: 
#>    openalex    institutions
#>    <chr>       <list>      
#>  1 W3001491100 <chr [3]>   
#>  2 W3038273726 <chr [2]>   
#>  3 W3044902155 <chr [1]>   
#>  4 W3042215340 <chr [3]>   
#>  5 W2998021954 <lgl [1]>   
#>  6 W3005144120 <chr [2]>   
#>  7 W3011866596 <chr [1]>   
#>  8 W3000049009 <chr [1]>   
#>  9 W3003683721 <chr [3]>   
#> 10 W3025370095 <chr [4]>   
#> # ℹ 65 more rows
…
